0.00037940715906817357, -1.1750067258541832
0.024758041707194228, -0.08796382525196078
0.04659809744555507, 0.19912667370294512
0.0949138745748915, 0.47322075288177023
0.19778150286624865, 0.6712919848513073
0.3039327276615412, 0.8443016493863955
0.39996412877768805, 0.8487510606154676
0.49774080282554856, 0.9344177479770702
0.5964418506791388, 0.35756710332981534
0.6989093768754786, 0.19314583721363388
0.7980795099439167, 0.041286397218600834
0.8477611528458985, 0.05285486641418835
0.8989535260721699, -0.06685499058380429
0.9304512185868119, -0.02994557231845385
0.948531694294406, -0.14903458123797098
0.9800431834330139, -0.09962542165931998
0.9998344405124064, -0.16874650772955846
0.9535467671060891, -0.10537861385319003
0.9304029304029304, -0.07369466691500626
0.9023061056959363, -0.0294178514517498
0.8510378510378509, 0.02154342832308931
0.7998661727475286, 0.1600028972910328
0.7519573960251926, 0.25465118685457666
0.7023999227389057, 0.35558038947869464
0.6495036664528189, 0.4315721942840589
0.6015603981705676, 0.49497113056435094
0.5507681270393134, 0.9771734856480622
0.49958265212502506, 1.103133213302705
0.44988721259907705, 1.0790650027938167
0.40018487476114595, 1.0487469216282779
0.3521588267350979, 1.037147410028766
0.300800894021233, 1.0068603712671513
0.25271276118733743, 0.9390120237577868
0.20298972841345722, 0.8899443306222972
0.15321150914371254, 0.7908776722336048
0.10341259493801863, 0.6730614018749614
0.07686789042721245, 0.6235591150845392
0.051847712864662, 0.45527824341383694
0.023419769182481037, 0.19956126735787794
