-4.627329192546583; -0.04919868108273895
-3.41614906832298; -0.06341538225596155
-2.32919254658385; -0.06287861360325087
-1.3043478260869552; -0.0870638754696722
-0.031055900621117516; 0.1950463921478417
0.6521739130434785; 0.5015566290928615
1.3664596273291938; 0.511785905988805
2.2360248447204985; 0.46283260486159084
2.950310559006212; 0.008864350893336592
4.347826086956523; -0.7064949006977992
5.3416149068323; -0.5134115481941566
6.490683229813666; -0.4338317613679932
7.857142857142858; -0.4380952380952381
9.006211180124225; -0.4128364389233954
10.248447204968944; -0.4616057050839655
11.366459627329196; -0.46105360018403463

