-0.0008920101377660195, -1.101239610913673
0.020671980970450365, -0.24034363628640643
0.04525889532331828, 0.01930564798165002
0.09666274937346905, 0.2917828875642461
0.19697849264445613, 0.45064564543304964
0.29261472241494046, 0.4512509380265337
0.3951180143571156, 0.38227943987426904
0.49263029719512363, 0.2942890112846366
0.5951052713551475, 0.2379755617540038
0.6909255667096154, 0.15630353830688004
0.7415011256318406, 0.049028700072210496
0.7969119458564007, 0.03039205969388492
0.7934430175428661, 0.08100301584379932
0.8438911464454105, 0.030689396406473612
0.8423124300904753, -0.013624392937544805
0.8927180823197928, -0.044950939442422566
0.9230039503306103, -0.08273394027779712
0.944872357596953, -0.1079119883330737
0.9751723844988461, -0.1520240134792643
0.9937984057088648, -0.22785549435768182
0.6471179577215513, 0.23830475597151257
0.594878729097937, 0.33923995072705915
0.5475738740141873, 0.48451017316323797
0.48860917212963884, 0.5917319155563738
0.44199102326305806, 1.1800444589179775
0.39336231186373494, 1.1670784544154502
0.3380222860945532, 1.1540699732396957
0.29108556217877013, 1.1347855635946593
0.2425418041259009, 1.0838454132272362
0.19561923910119364, 1.0582319792713835
0.13881376810568194, 0.9502775142650828
0.09703795998697382, 0.8740637433276226
0.06537160009628043, 0.7789266144675551
0.042221813187591134, 0.6268813626516772
0.015815481331502124, 0.4305117023234739
