-4.888077796778882, 0.02495877893769638
-3.718471630210056, 0.011273896730391364
-1.6444013374511819, 0.00229970137063229
-0.1019423670844013, 0.00017407284514669996
1.4938104596850401, 0.00035784476377642704
3.089563286454485, 0.0005416166824063762
4.632328543352312, 0.005325812297404253
5.96253094770158, 0.01469205441690713
7.50560249113046, 0.026386074172388474
9.048571939048983, 0.03577681921437503
10.11240715689528, 0.035899333826795
11.389724086883287, 0.05216927435616037
12.507363638683994, 0.06611756298016802
13.252354577707457, 0.07311314734934538
13.253783914852356, 0.10535899333826815
13.415196916715594, 0.14683631537303143
14.63860741723883, 0.14697720717731455
15.649761351744566, 0.1586099696265857
16.87388652084026, 0.17487378442533008

