-4.8792634893270606, -0.24894138562654877
-3.9618575584527527, -0.21199463659327922
-2.585209927091192, -0.14559105220941237
-1.2078439823294893, -0.06454285338026322
0.11301464162147212, 0.031129009086664716
1.433873265572437, 0.1268008715535922
2.8684648445450094, 0.20787002119024534
4.189323468495971, 0.30354188365717283
5.280920398903373, 0.39180763567144306
6.60285649295454, 0.5094464198062947
7.981299907816446, 0.6124615403033671
9.131559099234995, 0.7300374720157068
10.511439140897174, 0.8623418214033443
11.775790444037401, 0.9726373475080514
13.558045708676023, 1.1416998886614227
15.05309533216008, 1.2886907541093509
16.777047492487643, 1.4357654227872951
18.386189227693375, 1.5754758826275903
20.168803649032075, 1.7518607310036032
21.663853272516125, 1.8988515964515313
22.931436985956974, 2.075047887560009
23.97191394605466, 2.287771911551676
24.437261310443073, 2.441707969687174
24.832094242718096, 2.324697709777442
25.109243496270754, 2.141744783248931
25.09954626536891, 1.9440424882376177
25.090567347867204, 1.7609848076715868
24.736797998299988, 1.548512193369967
24.386620215733455, 1.4092626512947597
23.35655879993774, 1.408885536759688
22.557195704485867, 1.4452037615678384
21.69593793772223, 1.3863110416741489
20.545678746303683, 1.2687351099618094
19.27989081636318, 1.1291503549665385
18.245160363466585, 1.0335832465371309
17.20827497036957, 0.894082294771875
16.000790144740147, 0.7764854122520317
14.909193214332742, 0.6882196602377615
13.41629853104909, 0.5851626381256807
11.86510074345437, 0.46011774353817225
10.314980425959845, 0.3570397706185875
8.937255324498075, 0.26866926456679696
7.273761208682014, 0.18751631170012795
5.6678518837768905, 0.11370661686360428
4.063379185672041, 0.06918615091764524
2.63058339019981, 0.024728537394198558
0.2821774473536145, -0.020064289049312123
-1.2629146763399532, -0.020629960851919815
-2.8087251134336633, -0.035840247099809375
-3.7840749919189776, -0.0874525613858661
-4.7039950196937586, -0.1756554609776244
