-0.002290430745421679, -0.8695073510446227
0.005086407015733818, -0.42865101882899115
0.04089760123807068, 0.1296879030177973
0.08786174877482583, 0.40210472014444165
0.161227753417591, 0.5684395150889865
0.25612587051844204, 0.6971060098013929
0.3291926747485169, 0.6833221563064227
0.37690998194480274, 0.40914108847046693
0.4018261542429714, 0.40867681196801664
0.5179262316223885, 0.3009233943770955
0.6539282950735106, 0.17416559195254067
0.7716791333505291, 0.060170234717564997
0.8860871808099045, -0.06618519473819973
0.9969873613618778, -0.30427650245034865
0.8810420428166108, -0.10335826670105774
0.771606912561259, 0.016693319576992494
0.6670931132318805, 0.09938612329120433
0.5610936290946609, 0.2876966726850658
0.5270054165591952, 0.766592726334795
0.5058756770698994, 1.0464895537786951
0.4327882383286046, 1.0478514315192162
0.3563167397472272, 1.0120092855300493
0.27316997678617483, 0.9576579829765285
0.19831828733556878, 0.8969409337116329
0.1283466597884963, 0.7740211503740007
0.07995873097755996, 0.6444880061903535
0.039721434098529795, 0.42163528501418646
0.017683776115553274, 0.15496517926231612
0.007253030693835427, -0.12434356461181317
